<?xml version="1.0" encoding="UTF-8"?>
<robot generator="Robot 4.0.1 (Python 3.9.4 on darwin)" generated="20210811 00:52:10.558" rpa="false" schemaversion="2">
<suite id="s1" name="buyTickets" source="/Users/rodelabapo/PycharmProjects/arcticcon_automation/Test/Functional/buyTickets">
<test id="s1-t1" name="Buy Delux Ticket">
<kw name="Home Page">
<kw name="Open Browser" library="SeleniumLibrary">
<arg>${homePage}</arg>
<arg>chrome</arg>
<doc>Opens a new browser instance to the optional ``url``.</doc>
<msg timestamp="20210811 00:52:10.714" level="INFO">Opening browser 'chrome' to base url 'https://dev.arctic-con.com/#/ac2021'.</msg>
<status status="PASS" starttime="20210811 00:52:10.713" endtime="20210811 00:52:22.500"/>
</kw>
<kw name="Maximize Browser Window" library="SeleniumLibrary">
<doc>Maximizes current browser window.</doc>
<status status="PASS" starttime="20210811 00:52:22.500" endtime="20210811 00:52:22.646"/>
</kw>
<kw name="Sleep" library="BuiltIn">
<arg>3s</arg>
<doc>Pauses the test executed for the given time.</doc>
<msg timestamp="20210811 00:52:25.648" level="INFO">Slept 3 seconds</msg>
<status status="PASS" starttime="20210811 00:52:22.646" endtime="20210811 00:52:25.648"/>
</kw>
<status status="PASS" starttime="20210811 00:52:10.713" endtime="20210811 00:52:25.649"/>
</kw>
<kw name="Ticketing Page">
<kw name="Click Element" library="SeleniumLibrary">
<arg>${burgerMenu}</arg>
<doc>Click the element identified by ``locator``.</doc>
<msg timestamp="20210811 00:52:25.652" level="INFO">Clicking element 'xpath=//*[@class="nav__toggler"]'.</msg>
<status status="PASS" starttime="20210811 00:52:25.651" endtime="20210811 00:52:25.706"/>
</kw>
<kw name="Sleep" library="BuiltIn">
<arg>3s</arg>
<doc>Pauses the test executed for the given time.</doc>
<msg timestamp="20210811 00:52:28.708" level="INFO">Slept 3 seconds</msg>
<status status="PASS" starttime="20210811 00:52:25.706" endtime="20210811 00:52:28.708"/>
</kw>
<kw name="Click Element" library="SeleniumLibrary">
<arg>${mnuTickets}</arg>
<doc>Click the element identified by ``locator``.</doc>
<msg timestamp="20210811 00:52:28.709" level="INFO">Clicking element 'xpath=//*[@id="container"]/nav/div/ul/li[6]/a'.</msg>
<status status="PASS" starttime="20210811 00:52:28.709" endtime="20210811 00:52:28.780"/>
</kw>
<kw name="Sleep" library="BuiltIn">
<arg>2s</arg>
<doc>Pauses the test executed for the given time.</doc>
<msg timestamp="20210811 00:52:30.782" level="INFO">Slept 2 seconds</msg>
<status status="PASS" starttime="20210811 00:52:28.780" endtime="20210811 00:52:30.782"/>
</kw>
<kw name="Page Should Contain" library="SeleniumLibrary">
<arg>${ticketsPageTitle}</arg>
<doc>Verifies that current page contains ``text``.</doc>
<msg timestamp="20210811 00:52:30.806" level="INFO">Current page contains text 'Tickets'.</msg>
<status status="PASS" starttime="20210811 00:52:30.783" endtime="20210811 00:52:30.807"/>
</kw>
<status status="PASS" starttime="20210811 00:52:25.650" endtime="20210811 00:52:30.807"/>
</kw>
<kw name="Delux Ticket">
<kw name="Element Should Be Enabled" library="SeleniumLibrary">
<arg>${deluxTicketButton}</arg>
<doc>Verifies that element identified by ``locator`` is enabled.</doc>
<status status="PASS" starttime="20210811 00:52:30.808" endtime="20210811 00:52:30.833"/>
</kw>
<kw name="Sleep" library="BuiltIn">
<arg>2s</arg>
<doc>Pauses the test executed for the given time.</doc>
<msg timestamp="20210811 00:52:32.835" level="INFO">Slept 2 seconds</msg>
<status status="PASS" starttime="20210811 00:52:30.833" endtime="20210811 00:52:32.836"/>
</kw>
<kw name="Click Element" library="SeleniumLibrary">
<arg>${deluxTicketButton}</arg>
<doc>Click the element identified by ``locator``.</doc>
<msg timestamp="20210811 00:52:32.838" level="INFO">Clicking element 'xpath=//*[@id="tickets"]/section/div/article[2]/div[2]/button'.</msg>
<status status="PASS" starttime="20210811 00:52:32.836" endtime="20210811 00:52:32.924"/>
</kw>
<kw name="Reload Page" library="SeleniumLibrary">
<doc>Simulates user reloading page.</doc>
<status status="PASS" starttime="20210811 00:52:32.924" endtime="20210811 00:52:32.933"/>
</kw>
<kw name="Sleep" library="BuiltIn">
<arg>3s</arg>
<doc>Pauses the test executed for the given time.</doc>
<msg timestamp="20210811 00:52:35.936" level="INFO">Slept 3 seconds</msg>
<status status="PASS" starttime="20210811 00:52:32.933" endtime="20210811 00:52:35.936"/>
</kw>
<kw name="Scroll Element Into View" library="SeleniumLibrary">
<arg>${deluxQuantityField}</arg>
<doc>Scrolls the element identified by ``locator`` into view.</doc>
<status status="PASS" starttime="20210811 00:52:35.937" endtime="20210811 00:52:36.254"/>
</kw>
<kw name="Sleep" library="BuiltIn">
<arg>3s</arg>
<doc>Pauses the test executed for the given time.</doc>
<msg timestamp="20210811 00:52:39.255" level="INFO">Slept 3 seconds</msg>
<status status="PASS" starttime="20210811 00:52:36.254" endtime="20210811 00:52:39.256"/>
</kw>
<kw name="Clear Element Text" library="SeleniumLibrary">
<arg>${deluxQuantityField}</arg>
<doc>Clears the value of the text-input-element identified by ``locator``.</doc>
<status status="PASS" starttime="20210811 00:52:39.256" endtime="20210811 00:52:39.303"/>
</kw>
<kw name="Input Text" library="SeleniumLibrary">
<arg>${deluxQuantityField}</arg>
<arg>1</arg>
<doc>Types the given ``text`` into the text field identified by ``locator``.</doc>
<msg timestamp="20210811 00:52:39.304" level="INFO">Typing text '1' into text field 'xpath=//*[@id="deluxe-quantity"]'.</msg>
<status status="PASS" starttime="20210811 00:52:39.304" endtime="20210811 00:52:39.438"/>
</kw>
<status status="PASS" starttime="20210811 00:52:30.807" endtime="20210811 00:52:39.438"/>
</kw>
<kw name="Payment">
<kw name="Scroll Element Into View" library="SeleniumLibrary">
<arg>${paymentSection}</arg>
<doc>Scrolls the element identified by ``locator`` into view.</doc>
<status status="PASS" starttime="20210811 00:52:39.439" endtime="20210811 00:52:39.716"/>
</kw>
<kw name="Sleep" library="BuiltIn">
<arg>3s</arg>
<doc>Pauses the test executed for the given time.</doc>
<msg timestamp="20210811 00:52:42.717" level="INFO">Slept 3 seconds</msg>
<status status="PASS" starttime="20210811 00:52:39.717" endtime="20210811 00:52:42.717"/>
</kw>
<kw name="Click Element" library="SeleniumLibrary">
<arg>${emailField}</arg>
<doc>Click the element identified by ``locator``.</doc>
<msg timestamp="20210811 00:52:42.717" level="INFO">Clicking element 'xpath=//*[@id="email"]'.</msg>
<status status="PASS" starttime="20210811 00:52:42.717" endtime="20210811 00:52:42.800"/>
</kw>
<kw name="Input Text" library="SeleniumLibrary">
<arg>${emailField}</arg>
<arg>threattest01@gmail.com</arg>
<doc>Types the given ``text`` into the text field identified by ``locator``.</doc>
<msg timestamp="20210811 00:52:42.801" level="INFO">Typing text 'threattest01@gmail.com' into text field 'xpath=//*[@id="email"]'.</msg>
<status status="PASS" starttime="20210811 00:52:42.800" endtime="20210811 00:52:42.894"/>
</kw>
<kw name="Sleep" library="BuiltIn">
<arg>3s</arg>
<doc>Pauses the test executed for the given time.</doc>
<msg timestamp="20210811 00:52:45.896" level="INFO">Slept 3 seconds</msg>
<status status="PASS" starttime="20210811 00:52:42.894" endtime="20210811 00:52:45.897"/>
</kw>
<kw name="Wait Until Element Is Visible" library="SeleniumLibrary">
<arg>tag:iframe</arg>
<doc>Waits until the element ``locator`` is visible.</doc>
<status status="PASS" starttime="20210811 00:52:45.897" endtime="20210811 00:52:45.931"/>
</kw>
<kw name="Select Frame" library="SeleniumLibrary">
<arg>tag:iframe</arg>
<doc>Sets frame identified by ``locator`` as the current frame.</doc>
<msg timestamp="20210811 00:52:45.931" level="INFO">Selecting frame 'tag:iframe'.</msg>
<status status="PASS" starttime="20210811 00:52:45.931" endtime="20210811 00:52:45.951"/>
</kw>
<kw name="Sleep" library="BuiltIn">
<arg>3s</arg>
<doc>Pauses the test executed for the given time.</doc>
<msg timestamp="20210811 00:52:48.953" level="INFO">Slept 3 seconds</msg>
<status status="PASS" starttime="20210811 00:52:45.951" endtime="20210811 00:52:48.953"/>
</kw>
<kw name="Wait Until Element Is Visible" library="SeleniumLibrary">
<arg>${cardNumber}</arg>
<doc>Waits until the element ``locator`` is visible.</doc>
<status status="PASS" starttime="20210811 00:52:48.954" endtime="20210811 00:52:48.989"/>
</kw>
<kw name="Sleep" library="BuiltIn">
<arg>5s</arg>
<doc>Pauses the test executed for the given time.</doc>
<msg timestamp="20210811 00:52:53.991" level="INFO">Slept 5 seconds</msg>
<status status="PASS" starttime="20210811 00:52:48.989" endtime="20210811 00:52:53.992"/>
</kw>
<kw name="Click Element" library="SeleniumLibrary">
<arg>${cardNumber}</arg>
<doc>Click the element identified by ``locator``.</doc>
<msg timestamp="20210811 00:52:53.993" level="INFO">Clicking element 'xpath=//*[@name="cardnumber"]'.</msg>
<status status="PASS" starttime="20210811 00:52:53.992" endtime="20210811 00:52:54.111"/>
</kw>
<kw name="Input Text" library="SeleniumLibrary">
<arg>${cardNumber}</arg>
<arg>4242424242424242</arg>
<doc>Types the given ``text`` into the text field identified by ``locator``.</doc>
<msg timestamp="20210811 00:52:54.112" level="INFO">Typing text '4242424242424242' into text field 'xpath=//*[@name="cardnumber"]'.</msg>
<status status="PASS" starttime="20210811 00:52:54.111" endtime="20210811 00:52:54.224"/>
</kw>
<kw name="Sleep" library="BuiltIn">
<arg>3s</arg>
<doc>Pauses the test executed for the given time.</doc>
<msg timestamp="20210811 00:52:57.226" level="INFO">Slept 3 seconds</msg>
<status status="PASS" starttime="20210811 00:52:54.224" endtime="20210811 00:52:57.227"/>
</kw>
<kw name="Wait Until Element Is Enabled" library="SeleniumLibrary">
<arg>${expDate}</arg>
<doc>Waits until the element ``locator`` is enabled.</doc>
<status status="PASS" starttime="20210811 00:52:57.228" endtime="20210811 00:52:57.265"/>
</kw>
<kw name="Click Element" library="SeleniumLibrary">
<arg>${expDate}</arg>
<doc>Click the element identified by ``locator``.</doc>
<msg timestamp="20210811 00:52:57.266" level="INFO">Clicking element 'xpath=//*[@name="exp-date"]'.</msg>
<status status="PASS" starttime="20210811 00:52:57.265" endtime="20210811 00:52:57.317"/>
</kw>
<kw name="Input Text" library="SeleniumLibrary">
<arg>${expDate}</arg>
<arg>1234</arg>
<doc>Types the given ``text`` into the text field identified by ``locator``.</doc>
<msg timestamp="20210811 00:52:57.317" level="INFO">Typing text '1234' into text field 'xpath=//*[@name="exp-date"]'.</msg>
<status status="PASS" starttime="20210811 00:52:57.317" endtime="20210811 00:52:57.368"/>
</kw>
<kw name="Sleep" library="BuiltIn">
<arg>3s</arg>
<doc>Pauses the test executed for the given time.</doc>
<msg timestamp="20210811 00:53:00.370" level="INFO">Slept 3 seconds</msg>
<status status="PASS" starttime="20210811 00:52:57.368" endtime="20210811 00:53:00.370"/>
</kw>
<kw name="Click Element" library="SeleniumLibrary">
<arg>${cardCvc}</arg>
<doc>Click the element identified by ``locator``.</doc>
<msg timestamp="20210811 00:53:00.371" level="INFO">Clicking element 'xpath=//*[@name="cvc"]'.</msg>
<status status="PASS" starttime="20210811 00:53:00.370" endtime="20210811 00:53:00.430"/>
</kw>
<kw name="Input Text" library="SeleniumLibrary">
<arg>${cardCvc}</arg>
<arg>123</arg>
<doc>Types the given ``text`` into the text field identified by ``locator``.</doc>
<msg timestamp="20210811 00:53:00.430" level="INFO">Typing text '123' into text field 'xpath=//*[@name="cvc"]'.</msg>
<status status="PASS" starttime="20210811 00:53:00.430" endtime="20210811 00:53:00.485"/>
</kw>
<kw name="Sleep" library="BuiltIn">
<arg>3s</arg>
<doc>Pauses the test executed for the given time.</doc>
<msg timestamp="20210811 00:53:03.488" level="INFO">Slept 3 seconds</msg>
<status status="PASS" starttime="20210811 00:53:00.486" endtime="20210811 00:53:03.489"/>
</kw>
<kw name="Click Element" library="SeleniumLibrary">
<arg>${postalCode}</arg>
<doc>Click the element identified by ``locator``.</doc>
<msg timestamp="20210811 00:53:03.490" level="INFO">Clicking element 'xpath=//*[@name="postal"]'.</msg>
<status status="PASS" starttime="20210811 00:53:03.489" endtime="20210811 00:53:03.560"/>
</kw>
<kw name="Input Text" library="SeleniumLibrary">
<arg>${postalCode}</arg>
<arg>10001</arg>
<doc>Types the given ``text`` into the text field identified by ``locator``.</doc>
<msg timestamp="20210811 00:53:03.560" level="INFO">Typing text '10001' into text field 'xpath=//*[@name="postal"]'.</msg>
<status status="PASS" starttime="20210811 00:53:03.560" endtime="20210811 00:53:03.612"/>
</kw>
<kw name="Sleep" library="BuiltIn">
<arg>3s</arg>
<doc>Pauses the test executed for the given time.</doc>
<msg timestamp="20210811 00:53:06.613" level="INFO">Slept 3 seconds</msg>
<status status="PASS" starttime="20210811 00:53:03.612" endtime="20210811 00:53:06.613"/>
</kw>
<kw name="Unselect Frame" library="SeleniumLibrary">
<doc>Sets the main frame as the current frame.</doc>
<status status="PASS" starttime="20210811 00:53:06.614" endtime="20210811 00:53:06.622"/>
</kw>
<kw name="Click Button" library="SeleniumLibrary">
<arg>${btnSubmitPayment}</arg>
<doc>Clicks the button identified by ``locator``.</doc>
<msg timestamp="20210811 00:53:06.624" level="INFO">Clicking button 'xpath=//*[@class="button button-full-width"]'.</msg>
<status status="PASS" starttime="20210811 00:53:06.623" endtime="20210811 00:53:06.693"/>
</kw>
<kw name="Sleep" library="BuiltIn">
<arg>3s</arg>
<doc>Pauses the test executed for the given time.</doc>
<msg timestamp="20210811 00:53:09.696" level="INFO">Slept 3 seconds</msg>
<status status="PASS" starttime="20210811 00:53:06.694" endtime="20210811 00:53:09.697"/>
</kw>
<status status="PASS" starttime="20210811 00:52:39.439" endtime="20210811 00:53:09.697"/>
</kw>
<kw name="Confirm Buy">
<kw name="Wait Until Element Is Visible" library="SeleniumLibrary">
<arg>${successPage}</arg>
<doc>Waits until the element ``locator`` is visible.</doc>
<status status="PASS" starttime="20210811 00:53:09.698" endtime="20210811 00:53:09.950"/>
</kw>
<kw name="Element Should Be Visible" library="SeleniumLibrary">
<arg>${successPage}</arg>
<doc>Verifies that the element identified by ``locator`` is visible.</doc>
<msg timestamp="20210811 00:53:09.962" level="INFO">Element 'xpath=//*[@class='heading--h3 heading--center heading mb-4']' is displayed.</msg>
<status status="PASS" starttime="20210811 00:53:09.951" endtime="20210811 00:53:09.962"/>
</kw>
<kw name="Page Should Contain" library="SeleniumLibrary">
<arg>${successPageTitle}</arg>
<doc>Verifies that current page contains ``text``.</doc>
<msg timestamp="20210811 00:53:09.972" level="INFO">Current page contains text 'Thank you!'.</msg>
<status status="PASS" starttime="20210811 00:53:09.963" endtime="20210811 00:53:09.973"/>
</kw>
<kw name="Sleep" library="BuiltIn">
<arg>3s</arg>
<doc>Pauses the test executed for the given time.</doc>
<msg timestamp="20210811 00:53:12.974" level="INFO">Slept 3 seconds</msg>
<status status="PASS" starttime="20210811 00:53:09.973" endtime="20210811 00:53:12.974"/>
</kw>
<status status="PASS" starttime="20210811 00:53:09.698" endtime="20210811 00:53:12.975"/>
</kw>
<kw name="Orders">
<kw name="Wait Until Element Is Enabled" library="SeleniumLibrary">
<arg>${btnOrders}</arg>
<doc>Waits until the element ``locator`` is enabled.</doc>
<status status="PASS" starttime="20210811 00:53:12.976" endtime="20210811 00:53:13.011"/>
</kw>
<kw name="Click Button" library="SeleniumLibrary">
<arg>${btnOrders}</arg>
<doc>Clicks the button identified by ``locator``.</doc>
<msg timestamp="20210811 00:53:13.012" level="INFO">Clicking button 'xpath=/html/body/div/div/div[1]/div/button'.</msg>
<status status="PASS" starttime="20210811 00:53:13.011" endtime="20210811 00:53:13.054"/>
</kw>
<kw name="Sleep" library="BuiltIn">
<arg>3s</arg>
<doc>Pauses the test executed for the given time.</doc>
<msg timestamp="20210811 00:53:16.056" level="INFO">Slept 3 seconds</msg>
<status status="PASS" starttime="20210811 00:53:13.054" endtime="20210811 00:53:16.056"/>
</kw>
<status status="PASS" starttime="20210811 00:53:12.975" endtime="20210811 00:53:16.057"/>
</kw>
<kw name="Invite Via Code">
<kw name="Click Element" library="SeleniumLibrary">
<arg>${registerAttendeers}</arg>
<doc>Click the element identified by ``locator``.</doc>
<msg timestamp="20210811 00:53:16.060" level="INFO">Clicking element 'xpath=//*[@id="container"]/div[1]/div[2]/div[2]/div/div/div[2]/img'.</msg>
<kw name="Capture Page Screenshot" library="SeleniumLibrary">
<doc>Takes a screenshot of the current page and embeds it into a log file.</doc>
<msg timestamp="20210811 00:53:16.443" level="INFO" html="true">&lt;/td&gt;&lt;/tr&gt;&lt;tr&gt;&lt;td colspan="3"&gt;&lt;a href="selenium-screenshot-394.png"&gt;&lt;img src="selenium-screenshot-394.png" width="800px"&gt;&lt;/a&gt;</msg>
<status status="PASS" starttime="20210811 00:53:16.077" endtime="20210811 00:53:16.443"/>
</kw>
<msg timestamp="20210811 00:53:16.454" level="FAIL">Element with locator 'xpath=//*[@id="container"]/div[1]/div[2]/div[2]/div/div/div[2]/img' not found.</msg>
<status status="FAIL" starttime="20210811 00:53:16.058" endtime="20210811 00:53:16.455"/>
</kw>
<kw name="Sleep" library="BuiltIn">
<arg>3s</arg>
<doc>Pauses the test executed for the given time.</doc>
<status status="NOT RUN" starttime="20210811 00:53:16.455" endtime="20210811 00:53:16.455"/>
</kw>
<kw name="Element Should Be Visible" library="SeleniumLibrary">
<arg>${returnToCode}</arg>
<doc>Verifies that the element identified by ``locator`` is visible.</doc>
<status status="NOT RUN" starttime="20210811 00:53:16.455" endtime="20210811 00:53:16.455"/>
</kw>
<kw name="Element Text Should Be" library="SeleniumLibrary">
<arg>${returnToCode}</arg>
<arg>${returnTitle}</arg>
<doc>Verifies that element ``locator`` contains exact the text ``expected``.</doc>
<status status="NOT RUN" starttime="20210811 00:53:16.455" endtime="20210811 00:53:16.455"/>
</kw>
<kw name="Click Element" library="SeleniumLibrary">
<arg>${returnToCode}</arg>
<doc>Click the element identified by ``locator``.</doc>
<status status="NOT RUN" starttime="20210811 00:53:16.455" endtime="20210811 00:53:16.455"/>
</kw>
<kw name="Sleep" library="BuiltIn">
<arg>3s</arg>
<doc>Pauses the test executed for the given time.</doc>
<status status="NOT RUN" starttime="20210811 00:53:16.455" endtime="20210811 00:53:16.455"/>
</kw>
<status status="FAIL" starttime="20210811 00:53:16.057" endtime="20210811 00:53:16.455"/>
</kw>
<kw name="Send Email Success">
<status status="NOT RUN" starttime="20210811 00:53:16.456" endtime="20210811 00:53:16.456"/>
</kw>
<kw name="Invite via Email">
<status status="NOT RUN" starttime="20210811 00:53:16.456" endtime="20210811 00:53:16.456"/>
</kw>
<kw name="Send Email Success">
<status status="NOT RUN" starttime="20210811 00:53:16.456" endtime="20210811 00:53:16.456"/>
</kw>
<kw name="Wait Until Element Is Visible" library="SeleniumLibrary">
<arg>${emailRegisterSuccess}</arg>
<doc>Waits until the element ``locator`` is visible.</doc>
<status status="NOT RUN" starttime="20210811 00:53:16.456" endtime="20210811 00:53:16.456"/>
</kw>
<kw name="Page Should Contain" library="SeleniumLibrary">
<arg>${registerSuccessTitle}</arg>
<doc>Verifies that current page contains ``text``.</doc>
<status status="NOT RUN" starttime="20210811 00:53:16.456" endtime="20210811 00:53:16.456"/>
</kw>
<kw name="Close Chrome Browser">
<status status="NOT RUN" starttime="20210811 00:53:16.456" endtime="20210811 00:53:16.456"/>
</kw>
<status status="FAIL" starttime="20210811 00:52:10.712" endtime="20210811 00:53:16.457">Element with locator 'xpath=//*[@id="container"]/div[1]/div[2]/div[2]/div/div/div[2]/img' not found.</status>
</test>
<status status="FAIL" starttime="20210811 00:52:10.560" endtime="20210811 00:53:16.457"/>
</suite>
<statistics>
<total>
<stat pass="0" fail="1" skip="0">All Tests</stat>
</total>
<tag>
</tag>
<suite>
<stat pass="0" fail="1" skip="0" id="s1" name="buyTickets">buyTickets</stat>
</suite>
</statistics>
<errors>
</errors>
</robot>
